<svg width="38" height="38" viewBox="0 0 38 38" fill="none" xmlns="http://www.w3.org/2000/svg">
<path d="M33 37V5C33 2.79086 31.2091 1 29 1H9C6.79086 1 5 2.79086 5 5V37M33 37L37 36.9999M33 37H23M5 37L1 36.9999M5 37H15M13 8.99995H15M13 17H15M23 8.99995H25M23 17H25M15 37V27C15 25.8954 15.8954 25 17 25H21C22.1046 25 23 25.8954 23 27V37M15 37H23" stroke="white" stroke-width="2" stroke-linecap="round" stroke-linejoin="round"/>
</svg>
